Bayesian data analysis - CmdStanR demos
…
Run Stan

mod_lin <- cmdstan_model(stan_file = code_lin)
fit_lin <- mod_lin$sample(data = data_lin_priors, seed = SEED)

Stan gives a warning: There were X transitions after warmup that exceeded the maximum treedepth.

We can check the diagnostics as follows

fit_lin$summary()

# A tibble: 129 x 10
   variable     mean   median      sd     mad       q5      q95  rhat ess_bulk
   <chr>       <dbl>    <dbl>   <dbl>   <dbl>    <dbl>    <dbl> <dbl>    <dbl>
 1 lp__     -38.7    -38.4    1.27e+0 1.07e+0 -4.11e+1 -37.3     1.00    1171.
 2 alpha    -27.8    -28.3    1.52e+1 1.53e+1 -5.28e+1  -2.09    1.01    1183.
 3 beta       0.0187   0.0189 7.65e-3 7.71e-3  5.74e-3   0.0314  1.01    1184.
 4 sigma      1.12     1.11   1.07e-1 1.06e-1  9.54e-1   1.31    1.00    1290.
 5 mu[1]      8.74     8.74   2.70e-1 2.67e-1  8.30e+0   9.18    1.00    1467.
 6 mu[2]      8.76     8.76   2.64e-1 2.61e-1  8.33e+0   9.19    1.00    1486.
 7 mu[3]      8.78     8.78   2.57e-1 2.54e-1  8.36e+0   9.20    1.00    1507.
 8 mu[4]      8.80     8.80   2.51e-1 2.48e-1  8.39e+0   9.21    1.00    1530.
 9 mu[5]      8.82     8.82   2.45e-1 2.43e-1  8.42e+0   9.22    1.00    1554.
10 mu[6]      8.84     8.83   2.39e-1 2.36e-1  8.45e+0   9.23    1.00    1581.
#  with 119 more rows, and 1 more variable: ess_tail <dbl>
…
mod_lin_std <- cmdstan_model(stan_file = code_lin_std)
fit_lin_std <- mod_lin_std$sample(data = data_lin, seed = SEED)

Now there were no warnings. We can check diagnostics with the following commands.

fit_lin_std$summary()

# A tibble: 192 x 10
   variable     mean   median     sd    mad       q5      q95  rhat ess_bulk
   <chr>       <dbl>    <dbl>  <dbl>  <dbl>    <dbl>    <dbl> <dbl>    <dbl>
 1 lp__     -2.93e+1 -2.90e+1 1.29   1.06   -31.7    -27.9     1.00    1990.
 2 alpha     1.87e-3  2.66e-3 0.124  0.124   -0.200    0.204   1.00    3238.
 3 beta      3.15e-1  3.16e-1 0.127  0.124    0.0980   0.522   1.00    3801.
 4 sigma_s  9.67e-1  9.61e-1 0.0880 0.0845   0.832    1.12    1.00    3646.
 5 mu_std[ -5.30e-1 -5.29e-1 0.250  0.245   -0.938   -0.119   1.00    3811.
 6 mu_std[ -5.13e-1 -5.12e-1 0.244  0.239   -0.909   -0.110   1.00    3802.
 7 mu_std[ -4.95e-1 -4.95e-1 0.238  0.231   -0.881   -0.102   1.00    3788.
 8 mu_std[ -4.78e-1 -4.77e-1 0.232  0.226   -0.854   -0.0953  1.00    3772.
 9 mu_std[ -4.61e-1 -4.60e-1 0.226  0.220   -0.828   -0.0884  1.00    3750.
10 mu_std[ -4.43e-1 -4.43e-1 0.221  0.214   -0.802   -0.0804  1.00    3726.
#  with 182 more rows, and 1 more variable: ess_tail <dbl>
…
mod_lin_std_t <- cmdstan_model(stan_file = code_lin_std_t)
fit_lin_std_t <- mod_lin_std_t$sample(data = data_lin, seed = SEED)

We get some warnings, but these specific warnings are not critical if counts are small as here.

Lets examine further diagnostics.

fit_lin_std_t$summary()

# A tibble: 193 x 10
   variable     mean   median      sd     mad      q5     q95  rhat ess_bulk
   <chr>       <dbl>    <dbl>   <dbl>   <dbl>   <dbl>   <dbl> <dbl>    <dbl>
 1 lp__     -4.76e+1 -4.73e+1  1.42    1.23   -50.4   -45.9    1.00    2051.
 2 alpha    -2.52e-3  9.68e-5  0.120   0.117   -0.198   0.194  1.00    3178.
 3 beta      3.26e-1  3.24e-1  0.124   0.125    0.127   0.532  1.00    4333.
 4 sigma_s  9.26e-1  9.22e-1  0.0950  0.0916   0.778   1.09   1.00    3402.
 5 nu        2.43e+1  2.12e+1 14.2    12.6      7.31   51.9    1.00    3224.
 6 mu_std[ -5.54e-1 -5.52e-1  0.244   0.241   -0.955  -0.157  1.00    3830.
 7 mu_std[ -5.36e-1 -5.34e-1  0.238   0.235   -0.926  -0.149  1.00    3806.
 8 mu_std[ -5.18e-1 -5.17e-1  0.232   0.229   -0.898  -0.141  1.00    3788.
 9 mu_std[ -5.00e-1 -4.98e-1  0.226   0.224   -0.871  -0.131  1.00    3772.
10 mu_std[ -4.82e-1 -4.81e-1  0.220   0.218   -0.844  -0.123  1.00    3750.
#  with 183 more rows, and 1 more variable: ess_tail <dbl>
…
