…
Let’s use the mammal sleep dataset from ggplot2. This dataset contains the number of hours spent sleeping per day for 83 different species of mammals along with each species’ brain mass (kg) and body mass (kg), among other measures. Here’s a first look at the data.
Preview sorted by brain/body ratio. The sorting was chosen so that humans show up in the preview.

```r
library(dplyr, warn.conflicts = FALSE)
library(ggplot2)
msleep %>% 
  select(name, sleep_total, brainwt, bodywt, everything()) %>% 
    arrange(desc(brainwt / bodywt))
```

```
## # A tibble: 83 × 11
##                              name sleep_total brainwt bodywt        genus
##                             <chr>       <dbl>   <dbl>  <dbl>        <chr>
## 1  Thirteen-lined ground squirrel        13.8 0.00400  0.101 Spermophilus
## 2                      Owl monkey        17.0 0.01550  0.480        Aotus
## 3       Lesser short-tailed shrew         9.1 0.00014  0.005    Cryptotis
## 4                 Squirrel monkey         9.6 0.02000  0.743      Saimiri
## 5                         Macaque        10.1 0.17900  6.800       Macaca
## 6                Little brown bat        19.9 0.00025  0.010       Myotis
## 7                          Galago         9.8 0.00500  0.200       Galago
## 8                        Mole rat        10.6 0.00300  0.122       Spalax
## 9                      Tree shrew         8.9 0.00250  0.104       Tupaia
## 10                          Human         8.0 1.32000 62.000         Homo
## # ... with 73 more rows, and 6 more variables: vore <chr>, order <chr>,
## #   conservation <chr>, sleep_rem <dbl>, sleep_cycle <dbl>, awake <dbl>
```
…
