Does brain mass predict how much mammals sleep in a day?
…
1 Introduction

This notebook was inspired by a Tristan Mahr's notebook analysing whether brain mass predicts how much mammals sleep in a day. Tristan's original model had the problem that it would predict sleep times over 24h per day.

2 Mammal sleep data

Lets use the mammal sleep dataset from ggplot2. This dataset contains the number of hours spent sleeping per day for 83 different species of mammals along with each species brain mass (kg) and body mass (kg), among other measures. Heres a first look at the data. Preview sorted by brain/body ratio. The sorting was chosen so that humans show up in the preview.

msleep %>% 
  select(name, sleep_total, brainwt, bodywt, everything()) %>% 
    arrange(desc(brainwt / bodywt))

# A tibble: 83 x 11
   name  sleep_total brainwt bodywt genus vore  order conservation sleep_rem
   <chr>       <dbl>   <dbl>  <dbl> <chr> <chr> <chr> <chr>            <dbl>
 1 Thir        13.8 4.00e-3  0.101 Sper herbi Rode lc                 3.4
 2 Owl         17   1.55e-2  0.48  Aotus omni  Prim <NA>               1.8
 3 Less         9.1 1.40e-4  0.005 Cryp omni  Sori lc                 1.4
 4 Squi         9.6 2.00e-2  0.743 Saim omni  Prim <NA>               1.4
 5 Maca        10.1 1.79e-1  6.8   Maca omni  Prim <NA>               1.2
 6 Litt        19.9 2.50e-4  0.01  Myot inse Chir <NA>               2  
 7 Gala         9.8 5.00e-3  0.2   Gala omni  Prim <NA>               1.1
 8 Mole        10.6 3.00e-3  0.122 Spal <NA>  Rode <NA>               2.4
 9 Tree         8.9 2.50e-3  0.104 Tupa omni  Scan <NA>               2.6
10 Human         8   1.32e+0 62     Homo  omni  Prim <NA>               1.9
#  with 73 more rows, and 2 more variables: sleep_cycle <dbl>, awake <dbl>
…
